{
  "project_info": {
    "project_number": "542533663050",
    "firebase_url": "https://cammolabs-gocam.firebaseio.com",
    "project_id": "cammolabs-gocam",
    "storage_bucket": "cammolabs-gocam.appspot.com"
  },
  "client": [
    {
      "client_info": {
        "mobilesdk_app_id": "1:542533663050:android:c2eb44903974d3dc",
        "android_client_info": {
          "package_name": "and.gocarm"
        }
      },
      "oauth_client": [
        {
          "client_id": "542533663050-7nojst0ehae7glfb45q6r29ohb7qnis3.apps.googleusercontent.com",
          "client_type": 1,
          "android_info": {
            "package_name": "and.gocarm",
            "certificate_hash": "edec2a55163a0468d85f56466f7ff05170c1a056"
          }
        },
        {
          "client_id": "542533663050-38r5s65gin59236fv0uag2fde9l7f5gq.apps.googleusercontent.com",
          "client_type": 3
        }
      ],
      "api_key": [
        {
          "current_key": "AIzaSyBY0ZgZerrUFoLmfCCRMn5zBil7hlr2UG0"
        }
      ],
      "services": {
        "analytics_service": {
          "status": 1
        },
        "appinvite_service": {
          "status": 2,
          "other_platform_oauth_client": [
            {
              "client_id": "542533663050-137jh59kllh7ldvbjorsgbkmnll4avht.apps.googleusercontent.com",
              "client_type": 2,
              "ios_info": {
                "bundle_id": "coza.cammolab.gocam"
              }
            },
            {
              "client_id": "542533663050-38r5s65gin59236fv0uag2fde9l7f5gq.apps.googleusercontent.com",
              "client_type": 3
            }
          ]
        },
        "ads_service": {
          "status": 2
        }
      }
    }
  ],
  "configuration_version": "1"
}